{
    "key": "group_5e39660fdbe08",
    "title": "Ferieidé katalog",
    "fields": [
        {
            "key": "field_5e39661df817d",
            "label": "Link til fysisk katalog",
            "name": "product_link",
            "type": "post_object",
            "instructions": "Vælg hvilket\/hvilke fysiske kataloger\/varer der hører til denne attraktion.",
            "required": 0,
            "conditional_logic": 0,
            "wrapper": {
                "width": "",
                "class": "",
                "id": ""
            },
            "post_type": [
                "product"
            ],
            "taxonomy": "",
            "allow_null": 0,
            "multiple": 1,
            "return_format": "id",
            "ui": 1
        }
    ],
    "location": [
        [
            {
                "param": "post_type",
                "operator": "==",
                "value": "ferieide"
            }
        ]
    ],
    "menu_order": 3,
    "position": "normal",
    "style": "default",
    "label_placement": "top",
    "instruction_placement": "label",
    "hide_on_screen": "",
    "active": 1,
    "description": "",
    "modified": 1581414317
}